%YAML 1.1
%TAG !u! tag:unity3d.com,2011:
--- !u!1 &164992
GameObject:
  m_ObjectHideFlags: 0
  m_PrefabParentObject: {fileID: 0}
  m_PrefabInternal: {fileID: 100100000}
  serializedVersion: 4
  m_Component:
  - 4: {fileID: 464992}
  - 114: {fileID: 11464992}
  m_Layer: 0
  m_Name: MovieTextureQR_1
  m_TagString: Untagged
  m_Icon: {fileID: 0}
  m_NavMeshLayer: 0
  m_StaticEditorFlags: 0
  m_IsActive: 1
--- !u!4 &464992
Transform:
  m_ObjectHideFlags: 1
  m_PrefabParentObject: {fileID: 0}
  m_PrefabInternal: {fileID: 100100000}
  m_GameObject: {fileID: 164992}
  m_LocalRotation: {x: 0, y: 0, z: 0, w: 1}
  m_LocalPosition: {x: -6.64254999, y: -9.81516743, z: -8.4571104}
  m_LocalScale: {x: 1, y: 1, z: 1}
  m_Children: []
  m_Father: {fileID: 0}
  m_RootOrder: 0
--- !u!114 &11464992
MonoBehaviour:
  m_ObjectHideFlags: 1
  m_PrefabParentObject: {fileID: 0}
  m_PrefabInternal: {fileID: 100100000}
  m_GameObject: {fileID: 164992}
  m_Enabled: 1
  m_EditorHideFlags: 0
  m_Script: {fileID: 11500000, guid: 43148a0e368f8c1499ac9715431ec5bb, type: 3}
  m_Name: 
  m_EditorClassIdentifier: 
  m_path: MovieSamples/01_QR_1_v2.ogv
  m_movieMaterials:
  - {fileID: 2100000, guid: 0ac1bcad2bdef2e4db76fa0ff07b597f, type: 2}
  m_playAutomatically: 1
  m_advance: 1
  m_loopCount: 1
  m_playSpeed: 1
  m_scanDuration: 1
  m_seekKeyFrame: 0
--- !u!1001 &100100000
Prefab:
  m_ObjectHideFlags: 1
  serializedVersion: 2
  m_Modification:
    m_TransformParent: {fileID: 0}
    m_Modifications: []
    m_RemovedComponents: []
  m_ParentPrefab: {fileID: 0}
  m_RootGameObject: {fileID: 164992}
  m_IsPrefabParent: 1
  m_IsExploded: 1
